{
  "name": "development",
  "chef_type": "role",
  "json_class": "Chef::Role",
  "default_attributes": {
  },
  "description": "The base role for systems that serve HTTP traffic",
  "run_list": [
    "recipe[python::default]",
    "recipe[openssl::default]",
    "recipe[postgresql::server]",
    "recipe[beautysafe-dev::default]",
    "recipe[elasticsearch::default]"
  ],
  "env_run_lists" : {
   },
  "override_attributes": {
    "postgresql": {
      "password": {
        "postgres": "dev"
      }
    }
  }
}

